Scrabble numbers - Open Operational Research
…
blank_scores %>%
  select(Number, name, score_with_blanks) %>%
  filter(Number == score_with_blanks) %>%
  unique() %>%
  ungroup() %>%
  dplyr::arrange(Number)
## # A tibble: 103 x 3
##    Number name     score_with_blanks
##     <int> <chr>                <dbl>
##  1      0 zero                     0
##  2      0 aught                    0
##  3      0 cipher                   0
##  4      0 cypher                   0
##  5      0 donut                    0
##  6      0 dot                      0
##  7      0 duck                     0
##  8      0 gooseegg                 0
##  9      0 love                     0
## 10      0 nada                     0
## # ... with 93 more rows
…
blank_scores %>%
  select(Number, sequence, name, score_with_blanks) %>%
  filter(Number == score_with_blanks) %>%
  mutate(name_with_blanks = blankify(name, sequence)) %>%
  select(name, name_with_blanks,Number) %>%
  ungroup() %>%
  dplyr::arrange(Number)
## # A tibble: 1,245 x 3
##    name     name_with_blanks Number
##    <chr>    <chr>             <int>
##  1 zero     ____                  0
##  2 aught    _____                 0
##  3 cipher   ______                0
##  4 cypher   ______                0
##  5 donut    _____                 0
##  6 dot      ___                   0
##  7 duck     ____                  0
##  8 gooseegg ________              0
##  9 love     ____                  0
## 10 nada     ____                  0
## # ... with 1,235 more rows
…
