Spotify & me
…
I don’t recall getting up at 5 that day.

I don’t have album data, but do have track data. First thought was to just group by track name, but…

data %>%
  select(trackName, band) %>%
  unique() %>%
  add_count(trackName) %>%
  top_n(1) %>%
  select(trackName) %>%
  inner_join(data) %>%
  select(trackName, band) %>%
  unique()
## # A tibble: 48 x 2
##    trackName                 band            
##    <chr>                     <chr>           
##  1 Rockin' In The Free World Neil Young      
##  2 Rockin' In The Free World Pussy Revolution
##  3 Surrender                 Cheap Trick     
##  4 Surrender                 Less Than Jake  
##  5 Walk This Way             Aerosmith       
##  6 Walk This Way             Run–D.M.C.      
##  7 Cryin'                    Aerosmith       
##  8 Cryin'                    Vixen           
##  9 Dancing With Myself       Billy Idol      
## 10 Dancing With Myself       Generation X    
## # ... with 38 more rows
…
